[{
 "id": 1,
 "fecha": "12/2/2019",
 "importe": 91,
 "latitud": 41.132444,
 "longitud": 122.660989,
 "ciudad": "Gaotuo"
}, {
 "id": 2,
 "fecha": "12/28/2019",
 "importe": 51,
 "latitud": 59.8053589,
 "longitud": 17.682881,
 "ciudad": "Uppsala"
}, {
  "id": 3,
   "fecha": "3/12/2020",
   "importe": 71,
   "latitud": -31.3393,
   "longitud": 20.9033999,
   "ciudad": "Williston"
  }, {
   "id": 4,
   "fecha": "11/1/2019",
   "importe": 11,
   "latitud": 7.32688,
   "longitud": 124.297205,
   "ciudad": "Parang"
  }, {
   "id": 5,
   "fecha": "10/1/2019",
   "importe": 40,
   "latitud": 36.3400071,
   "longitud": 137.8830829,
   "ciudad": "Hotaka"
  }, {
    "id": 6,
     "fecha": "8/3/2019",
     "importe": 90,
     "latitud": 64.3443188,
     "longitud": 40.8058276,
     "ciudad": "Novodvinsk"
  }, {
     "id": 7,
     "fecha": "3/28/2019",
     "importe": 39,
     "latitud": 56.9191069,
     "longitud": 60.4807823,
     "ciudad": "Shuvakish"
  }, {

    "id": 8,
  "fecha": "2/16/2020",
  "importe": 63,
  "latitud": 34.1840093,
  "longitud": 71.7791319,
  "ciudad": "Utmānzai"
 }, {
  "id": 9,
  "fecha": "2/5/2020",
  "importe": 70,
  "latitud": "32.46392",
  "longitud": "35.21938",
  "ciudad": "Al Hāshimīyah"
 }, {
  "id": 10,
  "fecha": "8/18/2019",
  "importe": 8,
  "latitud": 18.8782625,
  "longitud": -71.5036905,
  "ciudad": "Las Matas de Farfán"
 }]
